R 1200 800
NO ./salle_grec.xpm
SO ./Castles_Ireland_Dunguaire_Castle_Galway_Bay_Bay_578171_225x300.jpg
WE ./path_to_the_west_texture
EA ./path_to_the_east_texture
S ./path_to_the_sprite_texture
F 0,00,0
C 225,250,250





111111111111111111111111111111
10000000101000000000000000101111111111
10110000000011100000020000010001
1111100111111100111111111111111
11111100111111011
11110001111111011111111111111111
111101111111110111010100100000011111111111
1100000011010101110000001000111
10002000000000001100000010001
10000000000000000101010000001
1100000011010101111101111001111
1111011111110101111101111000001
1111N01111111100000001111111001
1111111111111111111111111111111
